Chapter 3 Complex ANOVA and Multiple Linear Regression | Statistical Foundations
…
3.3.1.1 R code:

block <- read_csv(file = "garlic_block.csv")

## Rows: 32 Columns: 6
## ── Column specification ────────────────────────────────────────────────────────
## Delimiter: ","
## dbl (6): Sector, Position, Fertilizer, BulbWt, Cloves, BedId
## 
## ℹ Use `spec()` to retrieve the full column specification for this data.
## ℹ Specify the column types or set `show_col_types = FALSE` to quiet this message.

head(block, n = 32)

## # A tibble: 32 × 6
##    Sector Position Fertilizer BulbWt Cloves BedId
##     <dbl>    <dbl>      <dbl>  <dbl>  <dbl> <dbl>
##  1      1        1          3  0.259   11.6 22961
##  2      1        2          4  0.207   12.6 23884
##  3      1        3          1  0.275   12.1 19642
##  4      1        4          2  0.245   12.1 20384
##  5      2        1          3  0.215   11.6 20303
##  6      2        2          4  0.170   12.7 21004
##  7      2        3          1  0.225   12.0 16117
##  8      2        4          2  0.168   11.9 19686
##  9      3        1          4  0.217   12.4 26527
## 10      3        2          3  0.226   11.7 23574
## # ℹ 22 more rows
…
