Chapter 2 Introduction to ANOVA and Linear Regression | Statistical Foundations
…
The p-value for the ANOVA hypothesis that all the groups have the same mean sale price is incredibly small, at \(2.2\times10^{-16}\). This means it is extraordinarily improbable that we would have observed these differences in means, or a more extreme difference, if the population group means were equal. Thus, we reject our null hypothesis and conclude that there is an association between the exterior quality of a home and the price of the home.

We note, based on the \(R^2\) statistics, that the exterior quality rating can account for almost half the variation in sales price! Adjusted \(R^2\) is a statistic that takes into account the number of variables in the model. The difference between \(R^2\) and adjusted \(R^2\) will be more thoroughly discussed in Chapter 3.

We can also confirm what we know about the predictions from ANOVA, that there are only \(k\) unique predictions from an ANOVA with \(k\) groups (the predictions being the group means), using the predict function.

train$pred_anova <- predict(ames_lm, data = train)

train$resid_anova <- resid(ames_lm, data = train)

(model_output = train %>% dplyr::select(Sale_Price, pred_anova, resid_anova))

## # A tibble: 2,051 x 3
##    Sale_Price pred_anova resid_anova
##         <int>      <dbl>       <dbl>
##  1     232600    228910.       3690.
##  2     166000    228910.     -62910.
##  3     170000    142107.      27893.
##  4     252000    228910.      23090.
##  5     134000    142107.      -8107.
##  6     164700    228910.     -64210.
##  7     193500    142107.      51393.
##  8     118500    142107.     -23607.
##  9      94000    142107.     -48107.
## 10     111250    142107.     -30857.
## # … with 2,041 more rows
…
